Starting to read logs for processing 
Traceback (most recent call last):
  File "publishLogs.py", line 29, in <module>
    time.sleep(1)
KeyboardInterrupt
/usr/local/Cellar/python@2/2.7.15_1/Frameworks/Python.framework/Versions/2.7/Resources/Python.app/Contents/MacOS/Python: can't open file 'bgservice.py': [Errno 2] No such file or directory
Starting to read logs for processing 
(' [x] Sent', '{"request": {"HTTP_ACCEPT": "text/html,application/xhtml+xml,application/xml;q=0.9,image/webp,image/apng,*/*;q=0.8", "HTTP_USER_AGENT": "Mozilla/5.0 (Macintosh; Intel Mac OS X 10_12_6) AppleWebKit/537.36 (KHTML, like Gecko) Chrome/71.0.3578.98 Safari/537.36", "HTTP_CONNECTION": "keep-alive", "REMOTE_PORT": 53396, "SERVER_NAME": "127.0.0.1", "REMOTE_ADDR": "127.0.0.1", "wsgi.multiprocess": true, "HTTP_ACCEPT_LANGUAGE": "en-US,en;q=0.9", "SCRIPT_NAME": "", "REQUEST_METHOD": "GET", "HTTP_HOST": "localhost:8000", "SERVER_PORT": 8000, "wsgi.multithread": true, "QUERY_STRING": "", "HTTP_UPGRADE_INSECURE_REQUESTS": "1", "HTTP_CACHE_CONTROL": "max-age=0", "REMOTE_HOST": "127.0.0.1", "HTTP_ACCEPT_ENCODING": "gzip, deflate, br", "HTTP_COOKIE": "m=2258:Z3Vlc3Q6Z3Vlc3Q%253D"}}\n')
(' [x] Sent', '{"request": {"HTTP_ACCEPT": "text/html,application/xhtml+xml,application/xml;q=0.9,image/webp,image/apng,*/*;q=0.8", "HTTP_USER_AGENT": "Mozilla/5.0 (Macintosh; Intel Mac OS X 10_12_6) AppleWebKit/537.36 (KHTML, like Gecko) Chrome/71.0.3578.98 Safari/537.36", "HTTP_CONNECTION": "keep-alive", "REMOTE_PORT": 53396, "SERVER_NAME": "127.0.0.1", "REMOTE_ADDR": "127.0.0.1", "wsgi.multiprocess": true, "HTTP_ACCEPT_LANGUAGE": "en-US,en;q=0.9", "SCRIPT_NAME": "", "REQUEST_METHOD": "GET", "HTTP_HOST": "localhost:8000", "SERVER_PORT": 8000, "wsgi.multithread": true, "QUERY_STRING": "", "HTTP_UPGRADE_INSECURE_REQUESTS": "1", "HTTP_CACHE_CONTROL": "max-age=0", "REMOTE_HOST": "127.0.0.1", "HTTP_ACCEPT_ENCODING": "gzip, deflate, br", "HTTP_COOKIE": "m=2258:Z3Vlc3Q6Z3Vlc3Q%253D"}}\n')
(' [x] Sent', '{"request": {"HTTP_ACCEPT": "text/html,application/xhtml+xml,application/xml;q=0.9,image/webp,image/apng,*/*;q=0.8", "HTTP_USER_AGENT": "Mozilla/5.0 (Macintosh; Intel Mac OS X 10_12_6) AppleWebKit/537.36 (KHTML, like Gecko) Chrome/71.0.3578.98 Safari/537.36", "HTTP_CONNECTION": "keep-alive", "REMOTE_PORT": 53396, "SERVER_NAME": "127.0.0.1", "REMOTE_ADDR": "127.0.0.1", "wsgi.multiprocess": true, "HTTP_ACCEPT_LANGUAGE": "en-US,en;q=0.9", "SCRIPT_NAME": "", "REQUEST_METHOD": "GET", "HTTP_HOST": "localhost:8000", "SERVER_PORT": 8000, "wsgi.multithread": true, "QUERY_STRING": "", "HTTP_UPGRADE_INSECURE_REQUESTS": "1", "HTTP_CACHE_CONTROL": "max-age=0", "REMOTE_HOST": "127.0.0.1", "HTTP_ACCEPT_ENCODING": "gzip, deflate, br", "HTTP_COOKIE": "m=2258:Z3Vlc3Q6Z3Vlc3Q%253D"}}\n')
(' [x] Sent', '{"request": {"HTTP_ACCEPT": "text/html,application/xhtml+xml,application/xml;q=0.9,image/webp,image/apng,*/*;q=0.8", "HTTP_USER_AGENT": "Mozilla/5.0 (Macintosh; Intel Mac OS X 10_12_6) AppleWebKit/537.36 (KHTML, like Gecko) Chrome/71.0.3578.98 Safari/537.36", "HTTP_CONNECTION": "keep-alive", "REMOTE_PORT": 53396, "SERVER_NAME": "127.0.0.1", "REMOTE_ADDR": "127.0.0.1", "wsgi.multiprocess": true, "HTTP_ACCEPT_LANGUAGE": "en-US,en;q=0.9", "SCRIPT_NAME": "", "REQUEST_METHOD": "GET", "HTTP_HOST": "localhost:8000", "SERVER_PORT": 8000, "wsgi.multithread": true, "QUERY_STRING": "", "HTTP_UPGRADE_INSECURE_REQUESTS": "1", "HTTP_CACHE_CONTROL": "max-age=0", "REMOTE_HOST": "127.0.0.1", "HTTP_ACCEPT_ENCODING": "gzip, deflate, br", "HTTP_COOKIE": "m=2258:Z3Vlc3Q6Z3Vlc3Q%253D"}}\n')
(' [x] Sent', '{"request": {"HTTP_ACCEPT": "text/html,application/xhtml+xml,application/xml;q=0.9,image/webp,image/apng,*/*;q=0.8", "HTTP_USER_AGENT": "Mozilla/5.0 (Macintosh; Intel Mac OS X 10_12_6) AppleWebKit/537.36 (KHTML, like Gecko) Chrome/71.0.3578.98 Safari/537.36", "HTTP_CONNECTION": "keep-alive", "REMOTE_PORT": 53396, "SERVER_NAME": "127.0.0.1", "REMOTE_ADDR": "127.0.0.1", "wsgi.multiprocess": true, "HTTP_ACCEPT_LANGUAGE": "en-US,en;q=0.9", "SCRIPT_NAME": "", "REQUEST_METHOD": "GET", "HTTP_HOST": "localhost:8000", "SERVER_PORT": 8000, "wsgi.multithread": true, "QUERY_STRING": "", "HTTP_UPGRADE_INSECURE_REQUESTS": "1", "HTTP_CACHE_CONTROL": "max-age=0", "REMOTE_HOST": "127.0.0.1", "HTTP_ACCEPT_ENCODING": "gzip, deflate, br", "HTTP_COOKIE": "m=2258:Z3Vlc3Q6Z3Vlc3Q%253D"}}\n')
Traceback (most recent call last):
  File "publishLogs.py", line 32, in <module>
    publishMessage(line)
  File "publishLogs.py", line 20, in publishMessage
    body=line)
  File "/usr/local/lib/python2.7/site-packages/pika/adapters/blocking_connection.py", line 2053, in basic_publish
    mandatory, immediate)
  File "/usr/local/lib/python2.7/site-packages/pika/adapters/blocking_connection.py", line 2140, in publish
    self._flush_output()
  File "/usr/local/lib/python2.7/site-packages/pika/adapters/blocking_connection.py", line 1251, in _flush_output
    *waiters)
  File "/usr/local/lib/python2.7/site-packages/pika/adapters/blocking_connection.py", line 474, in _flush_output
    result.reason_text)
pika.exceptions.ConnectionClosed: (-1, "error(32, 'Broken pipe')")
